module nunu-api

go 1.16

require (
	github.com/DATA-DOG/go-sqlmock v1.5.0
	github.com/gin-gonic/gin v1.9.1
	github.com/go-co-op/gocron v1.28.2
	github.com/go-redis/redismock/v9 v9.0.3
	github.com/golang-jwt/jwt/v5 v5.0.0
	github.com/golang/mock v1.6.0
	github.com/google/uuid v1.3.0
	github.com/google/wire v0.5.0
	github.com/pkg/errors v0.9.1
	github.com/redis/go-redis/v9 v9.0.5
	github.com/sony/sonyflake v1.1.0
	github.com/spf13/viper v1.16.0
	github.com/stretchr/testify v1.8.4
	go.uber.org/atomic v1.11.0 // indirect
	go.uber.org/zap v1.24.0
	golang.org/x/crypto v0.9.0
	gopkg.in/natefinch/lumberjack.v2 v2.2.1
	gorm.io/driver/mysql v1.5.1
	gorm.io/gorm v1.25.1
)
